[gd_scene load_steps=2 format=2]

[ext_resource path="res://course_gen/Course.gd" type="Script" id=1]

[node name="Course" type="Spatial" groups=[
"course",
]]
script = ExtResource( 1 )

[node name="MeshInstance" type="MeshInstance" parent="."]

[node name="WayPointBoards" type="Spatial" parent="."]

[node name="Path" type="Spatial" parent="."]
